TAC	Device
1203600	A1325
1203700	A1325
1203800	A1325
1203900	A1325
1204000	A1325
35869405	AC2112
35869505	AC2112
35869605	AC2112
35869705	AC2112
35869805	AC2112
1355900	Apple A1429
1324400	Apple iPad (A1337)
99000096	Apple iPad (A1403)
99000097	Apple iPad (A1403)
99000125	Apple iPad (A1403)
99000126	Apple iPad (A1403)
99000127	Apple iPad (A1403)
99000128	Apple iPad (A1403)
99000129	Apple iPad (A1403)
99000130	Apple iPad (A1403)
99000131	Apple iPad (A1403)
1311500	Apple iPad (A1430)
1311600	Apple iPad (A1430)
1311700	Apple iPad (A1430)
1311800	Apple iPad (A1430)
1321100	Apple iPad (A1430)
1321200	Apple iPad (A1430)
1321300	Apple iPad (A1430)
1321400	Apple iPad (A1430)
1321500	Apple iPad (A1430)
1321600	Apple iPad (A1430)
1321700	Apple iPad (A1430)
1321800	Apple iPad (A1430)
1330700	Apple iPad (A1430)
1330800	Apple iPad (A1430)
1330900	Apple iPad (A1430)
1331000	Apple iPad (A1430)
1331100	Apple iPad (A1430)
1331200	Apple iPad (A1430)
1331300	Apple iPad (A1430)
1331400	Apple iPad (A1430)
1331500	Apple iPad (A1430)
1331600	Apple iPad (A1430)
1331700	Apple iPad (A1430)
1331800	Apple iPad (A1430)
1331900	Apple iPad (A1430)
1332000	Apple iPad (A1430)
1356800	Apple iPad (A1430)
1356900	Apple iPad (A1430)
1357000	Apple iPad (A1430)
1357100	Apple iPad (A1430)
1357200	Apple iPad (A1430)
1335900	Apple iPad (A1454)
1336000	Apple iPad (A1454)
1336100	Apple iPad (A1454)
1336200	Apple iPad (A1454)
1336300	Apple iPad (A1454)
1336400	Apple iPad (A1454)
1336500	Apple iPad (A1454)
1336600	Apple iPad (A1454)
1354200	Apple iPad (A1454)
1354300	Apple iPad (A1454)
1354400	Apple iPad (A1454)
1354500	Apple iPad (A1454)
1354600	Apple iPad (A1454)
1354700	Apple iPad (A1454)
1354800	Apple iPad (A1454)
1354900	Apple iPad (A1454)
1336700	Apple iPad (A1459)
1336800	Apple iPad (A1459)
1336900	Apple iPad (A1459)
1337000	Apple iPad (A1459)
1337100	Apple iPad (A1459)
1337200	Apple iPad (A1459)
1337300	Apple iPad (A1459)
1337400	Apple iPad (A1459)
1356000	Apple iPad (A1459)
1356100	Apple iPad (A1459)
1356200	Apple iPad (A1459)
1356300	Apple iPad (A1459)
1356400	Apple iPad (A1459)
1356500	Apple iPad (A1459)
1356600	Apple iPad (A1459)
1356700	Apple iPad (A1459)
99000132	Apple iPad (A1460)
99000133	Apple iPad (A1460)
99000179	Apple iPad (A1460)
99000235	Apple iPad (A1460)
99000236	Apple iPad (A1460)
99000237	Apple iPad (A1460)
99000238	Apple iPad (A1460)
99000289	Apple iPad (A1460)
99000306	Apple iPad (A1460)
99000307	Apple iPad (A1460)
99000308	Apple iPad (A1460)
99000309	Apple iPad (A1460)
99000383	Apple iPad (A1460)
99000409	Apple iPad (A1460)
99000410	Apple iPad (A1460)
35197606	Apple iPad Air (A1475)
35197706	Apple iPad Air (A1475)
35853105	Apple iPad Air (A1475)
35853205	Apple iPad Air (A1475)
35876905	Apple iPad Air (A1475)
35877005	Apple iPad Air (A1475)
35877105	Apple iPad Air (A1475)
35877205	Apple iPad Air (A1475)
35877305	Apple iPad Air (A1475)
35884505	Apple iPad Air (A1475)
35884605	Apple iPad Air (A1475)
35884705	Apple iPad Air (A1475)
99000134	Apple iPad mini (A1455)
99000180	Apple iPad mini (A1455)
99000239	Apple iPad mini (A1455)
99000240	Apple iPad mini (A1455)
99000241	Apple iPad mini (A1455)
99000242	Apple iPad mini (A1455)
99000290	Apple iPad mini (A1455)
99000302	Apple iPad mini (A1455)
99000303	Apple iPad mini (A1455)
99000304	Apple iPad mini (A1455)
99000305	Apple iPad mini (A1455)
99000384	Apple iPad mini (A1455)
99000411	Apple iPad mini (A1455)
99000412	Apple iPad mini (A1455)
35197806	Apple iPad mini (A1490)
35197906	Apple iPad mini (A1490)
35444205	Apple iPad mini (A1490)
35444305	Apple iPad mini (A1490)
35444405	Apple iPad mini (A1490)
35444505	Apple iPad mini (A1490)
35444605	Apple iPad mini (A1490)
35867605	Apple iPad mini (A1490)
35867705	Apple iPad mini (A1490)
35867805	Apple iPad mini (A1490)
35877405	Apple iPad mini (A1490)
35877505	Apple iPad Mini (A1490)
35884805	Apple iPad mini (A1490)
35884905	Apple iPad mini (A1490)
35885005	Apple iPad mini (A1490)
99000174	Apple iPad(A1403)
99000175	Apple iPad(A1403)
99000176	Apple iPad(A1403)
99000177	Apple iPad(A1403)
99000178	Apple iPad(A1403)
1255000	Apple iPhone 4 (A1332)
1285300	Apple iPhone 4 (A1332)
1313000	Apple iPhone 4 (A1332)
1326300	Apple iPhone 4 (A1332)
1326400	Apple iPhone 4 (A1332)
1326500	Apple iPhone 4 (A1332)
1326600	Apple iPhone 4 (A1332)
1326700	Apple iPhone 4 (A1332)
1326800	Apple iPhone 4 (A1332)
1326900	Apple iPhone 4 (A1332)
1327000	Apple iPhone 4 (A1332)
1327100	Apple iPhone 4 (A1332)
1327200	Apple iPhone 4 (A1332)
1327300	Apple iPhone 4 (A1332)
1327400	Apple iPhone 4 (A1332)
1327500	Apple iPhone 4 (A1332)
1327600	Apple iPhone 4 (A1332)
1327700	Apple iPhone 4 (A1332)
1327800	Apple iPhone 4 (A1332)
1327900	Apple iPhone 4 (A1332)
1328000	Apple iPhone 4 (A1332)
1328100	Apple iPhone 4 (A1332)
1328200	Apple iPhone 4 (A1332)
1366000	Apple iPhone 4 (A1332)
1366100	Apple iPhone 4 (A1332)
1366200	Apple iPhone 4 (A1332)
1366300	Apple iPhone 4 (A1332)
1366400	Apple iPhone 4 (A1332)
1366500	Apple iPhone 4 (A1332)
1366600	Apple iPhone 4 (A1332)
1366700	Apple iPhone 4 (A1332)
1366800	Apple iPhone 4 (A1332)
1366900	Apple iPhone 4 (A1332)
1367000	Apple iPhone 4 (A1332)
1367100	Apple iPhone 4 (A1332)
1367200	Apple iPhone 4 (A1332)
1367300	Apple iPhone 4 (A1332)
1367400	Apple iPhone 4 (A1332)
1367500	Apple iPhone 4 (A1332)
1367600	Apple iPhone 4 (A1332)
1367700	Apple iPhone 4 (A1332)
1367800	Apple iPhone 4 (A1332)
1367900	Apple iPhone 4 (A1332)
1390000	Apple iPhone 4 (A1332)
1390100	Apple iPhone 4 (A1332)
1390200	Apple iPhone 4 (A1332)
1390300	Apple iPhone 4 (A1332)
1390400	Apple iPhone 4 (A1332)
1390500	Apple iPhone 4 (A1332)
1390600	Apple iPhone 4 (A1332)
1390700	Apple iPhone 4 (A1332)
1390800	Apple iPhone 4 (A1332)
1293600	Apple iPhone 4S (A1387)
1293700	Apple iPhone 4S (A1387)
1293800	Apple iPhone 4S (A1387)
1293900	Apple iPhone 4S (A1387)
1294000	Apple iPhone 4S (A1387)
1294100	Apple iPhone 4S (A1387)
1359900	Apple iPhone 4S (A1387)
1360000	Apple iPhone 4S (A1387)
1360100	Apple iPhone 4S (A1387)
1360200	Apple iPhone 4S (A1387)
1360300	Apple iPhone 4S (A1387)
1360400	Apple iPhone 4S (A1387)
1360500	Apple iPhone 4S (A1387)
1360600	Apple iPhone 4S (A1387)
1360700	Apple iPhone 4S (A1387)
1360800	Apple iPhone 4S (A1387)
99000086	Apple iPhone 4S (A1387)
99000087	Apple iPhone 4S (A1387)
99000088	Apple iPhone 4S (A1387)
99000089	Apple iPhone 4S (A1387)
99000098	Apple iPhone 4S (A1387)
99000099	Apple iPhone 4S (A1387)
99000101	Apple iPhone 4S (A1387)
99000102	Apple iPhone 4S (A1387)
99000103	Apple iPhone 4S (A1387)
99000104	Apple iPhone 4S (A1387)
99000105	Apple iPhone 4S (A1387)
99000106	Apple iPhone 4S (A1387)
99000107	Apple iPhone 4S (A1387)
99000108	Apple iPhone 4S (A1387)
99000109	Apple iPhone 4S (A1387)
99000110	Apple iPhone 4S (A1387)
99000181	Apple iPhone 4S (A1387)
99000182	Apple iPhone 4S (A1387)
99000183	Apple iPhone 4S (A1387)
99000184	Apple iPhone 4S (A1387)
99000185	Apple iPhone 4S (A1387)
99000186	Apple iPhone 4S (A1387)
99000187	Apple iPhone 4S (A1387)
99000188	Apple iPhone 4S (A1387)
99000189	Apple iPhone 4S (A1387)
99000190	Apple iPhone 4S (A1387)
99000191	Apple iPhone 4S (A1387)
99000192	Apple iPhone 4S (A1387)
99000193	Apple iPhone 4S (A1387)
99000194	Apple iPhone 4S (A1387)
99000195	Apple iPhone 4S (A1387)
99000196	Apple iPhone 4S (A1387)
99000197	Apple iPhone 4S (A1387)
99000198	Apple iPhone 4S (A1387)
99000263	Apple iPhone 4S (A1387)
99000264	Apple iPhone 4S (A1387)
99000265	Apple iPhone 4S (A1387)
99000266	Apple iPhone 4S (A1387)
99000267	Apple iPhone 4S (A1387)
99000268	Apple iPhone 4S (A1387)
99000269	Apple iPhone 4S (A1387)
99000270	Apple iPhone 4S (A1387)
99000399	Apple iPhone 4S (A1387)
99000400	Apple iPhone 4S (A1387)
99000401	Apple iPhone 4S (A1387)
99000402	Apple iPhone 4S (A1387)
99000403	Apple iPhone 4S (A1387)
99000404	Apple iPhone 4S (A1387)
99000405	Apple iPhone 4S (A1387)
99000406	Apple iPhone 4S (A1387)
99000407	Apple iPhone 4S (A1387)
99000408	Apple iPhone 4S (A1387)
1294200	Apple iPhone 4S (A1431)
1294300	Apple iPhone 4S (A1431)
1302400	Apple iPhone 4S (A1431)
1302500	Apple iPhone 4S (A1431)
1302600	Apple iPhone 4S (A1431)
1302700	Apple iPhone 4S (A1431)
1302800	Apple iPhone 4S (A1431)
1313500	Apple iPhone 4S (A1431)
1313600	Apple iPhone 4S (A1431)
1313700	Apple iPhone 4S (A1431)
1313800	Apple iPhone 4S (A1431)
1313900	Apple iPhone 4S (A1431)
1314000	Apple iPhone 4S (A1431)
1314100	Apple iPhone 4S (A1431)
1314200	Apple iPhone 4S (A1431)
1314300	Apple iPhone 4S (A1431)
1314400	Apple iPhone 4S (A1431)
1314500	Apple iPhone 4S (A1431)
1314600	Apple iPhone 4S (A1431)
1314700	Apple iPhone 4S (A1431)
1314800	Apple iPhone 4S (A1431)
1314900	Apple iPhone 4S (A1431)
1315000	Apple iPhone 4S (A1431)
1315100	Apple iPhone 4S (A1431)
1315200	Apple iPhone 4S (A1431)
1315300	Apple iPhone 4S (A1431)
1315400	Apple iPhone 4S (A1431)
1353200	Apple iPhone 4S A1387
1353300	Apple iPhone 4S A1387
1353400	Apple iPhone 4S A1387
1353500	Apple iPhone 4S A1387
1353600	Apple iPhone 4S A1387
1353700	Apple iPhone 4S A1387
1353800	Apple iPhone 4S A1387
1353900	Apple iPhone 4S A1387
1354000	Apple iPhone 4S A1387
1354100	Apple iPhone 4S A1387
1358900	Apple iPhone 4S A1387
1359000	Apple iPhone 4S A1387
1359100	Apple iPhone 4S A1387
1359200	Apple iPhone 4S A1387
1359300	Apple iPhone 4S A1387
1359400	Apple iPhone 4S A1387
1359500	Apple iPhone 4S A1387
1359600	Apple iPhone 4S A1387
1359700	Apple iPhone 4S A1387
1359800	Apple iPhone 4S A1387
99000100	Apple iPhone 4S(A1387)
1332700	Apple iPhone 5 (A1428)
1332800	Apple iPhone 5 (A1428)
1332900	Apple iPhone 5 (A1428)
1333000	Apple iPhone 5 (A1428)
1333100	Apple iPhone 5 (A1428)
1333200	Apple iPhone 5 (A1428)
1333300	Apple iPhone 5 (A1428)
1333400	Apple iPhone 5 (A1428)
1333500	Apple iPhone 5 (A1428)
1333600	Apple iPhone 5 (A1428)
1342300	Apple iPhone 5 (A1428)
1342400	Apple iPhone 5 (A1428)
1342500	Apple iPhone 5 (A1428)
1342600	Apple iPhone 5 (A1428)
1342700	Apple iPhone 5 (A1428)
1342800	Apple iPhone 5 (A1428)
1342900	Apple iPhone 5 (A1428)
1343000	Apple iPhone 5 (A1428)
1343100	Apple iPhone 5 (A1428)
1343200	Apple iPhone 5 (A1428)
1343300	Apple iPhone 5 (A1428)
1343400	Apple iPhone 5 (A1428)
1343500	Apple iPhone 5 (A1428)
1343600	Apple iPhone 5 (A1428)
1343700	Apple iPhone 5 (A1428)
1343800	Apple iPhone 5 (A1428)
1343900	Apple iPhone 5 (A1428)
1344000	Apple iPhone 5 (A1428)
1344100	Apple iPhone 5 (A1428)
1344200	Apple iPhone 5 (A1428)
1352200	Apple iPhone 5 (A1428)
1352300	Apple iPhone 5 (A1428)
1352400	Apple iPhone 5 (A1428)
1352500	Apple iPhone 5 (A1428)
1352600	Apple iPhone 5 (A1428)
1352700	Apple iPhone 5 (A1428)
1352800	Apple iPhone 5 (A1428)
1352900	Apple iPhone 5 (A1428)
1353000	Apple iPhone 5 (A1428)
1353100	Apple iPhone 5 (A1428)
1360900	Apple iPhone 5 (A1428)
1361000	Apple iPhone 5 (A1428)
1361100	Apple iPhone 5 (A1428)
1361200	Apple iPhone 5 (A1428)
1361300	Apple iPhone 5 (A1428)
1361400	Apple iPhone 5 (A1428)
1361500	Apple iPhone 5 (A1428)
1361600	Apple iPhone 5 (A1428)
1361700	Apple iPhone 5 (A1428)
1361800	Apple iPhone 5 (A1428)
1334500	Apple iPhone 5 (A1429)
1334600	Apple iPhone 5 (A1429)
1334700	Apple iPhone 5 (A1429)
1334800	Apple iPhone 5 (A1429)
1334900	Apple iPhone 5 (A1429)
1335000	Apple iPhone 5 (A1429)
1335100	Apple iPhone 5 (A1429)
1335200	Apple iPhone 5 (A1429)
1335300	Apple iPhone 5 (A1429)
1335400	Apple iPhone 5 (A1429)
1346700	Apple iPhone 5 (A1429)
1346800	Apple iPhone 5 (A1429)
1346900	Apple iPhone 5 (A1429)
1347000	Apple iPhone 5 (A1429)
1347100	Apple iPhone 5 (A1429)
1347200	Apple iPhone 5 (A1429)
1347300	Apple iPhone 5 (A1429)
1347400	Apple iPhone 5 (A1429)
1347500	Apple iPhone 5 (A1429)
1347600	Apple iPhone 5 (A1429)
1347700	Apple iPhone 5 (A1429)
1347800	Apple iPhone 5 (A1429)
1355700	Apple iPhone 5 (A1429)
1355800	Apple iPhone 5 (A1429)
1361900	Apple iPhone 5 (A1429)
1362000	Apple iPhone 5 (A1429)
1362100	Apple iPhone 5 (A1429)
1362200	Apple iPhone 5 (A1429)
1362300	Apple iPhone 5 (A1429)
1362400	Apple iPhone 5 (A1429)
1362500	Apple iPhone 5 (A1429)
1362600	Apple iPhone 5 (A1429)
1362700	Apple iPhone 5 (A1429)
1362800	Apple iPhone 5 (A1429)
1362900	Apple iPhone 5 (A1429)
1363000	Apple iPhone 5 (A1429)
1363100	Apple iPhone 5 (A1429)
1363200	Apple iPhone 5 (A1429)
1363300	Apple iPhone 5 (A1429)
1363400	Apple iPhone 5 (A1429)
1363500	Apple iPhone 5 (A1429)
1363600	Apple iPhone 5 (A1429)
1363700	Apple iPhone 5 (A1429)
1363800	Apple iPhone 5 (A1429)
1370900	Apple iPhone 5 (A1429)
1371000	Apple iPhone 5 (A1429)
1371100	Apple iPhone 5 (A1429)
1371200	Apple iPhone 5 (A1429)
1371300	Apple iPhone 5 (A1429)
1371400	Apple iPhone 5 (A1429)
1371500	Apple iPhone 5 (A1429)
1371600	Apple iPhone 5 (A1429)
1371700	Apple iPhone 5 (A1429)
1371800	Apple iPhone 5 (A1429)
1371900	Apple iPhone 5 (A1429)
1372000	Apple iPhone 5 (A1429)
1372100	Apple iPhone 5 (A1429)
1372200	Apple iPhone 5 (A1429)
1372300	Apple iPhone 5 (A1429)
1372400	Apple iPhone 5 (A1429)
1372500	Apple iPhone 5 (A1429)
1372600	Apple iPhone 5 (A1429)
1372700	Apple iPhone 5 (A1429)
1372800	Apple iPhone 5 (A1429)
1372900	Apple iPhone 5 (A1429)
1373000	Apple iPhone 5 (A1429)
1373100	Apple iPhone 5 (A1429)
1373200	Apple iPhone 5 (A1429)
1373300	Apple iPhone 5 (A1429)
1373400	Apple iPhone 5 (A1429)
1373500	Apple iPhone 5 (A1429)
1373600	Apple iPhone 5 (A1429)
1373700	Apple iPhone 5 (A1429)
1373800	Apple iPhone 5 (A1429)
1373900	Apple iPhone 5 (A1429)
1374000	Apple iPhone 5 (A1429)
1374100	Apple iPhone 5 (A1429)
1374200	Apple iPhone 5 (A1429)
1374300	Apple iPhone 5 (A1429)
1374400	Apple iPhone 5 (A1429)
1374500	Apple iPhone 5 (A1429)
1374600	Apple iPhone 5 (A1429)
1374700	Apple iPhone 5 (A1429)
1374800	Apple iPhone 5 (A1429)
99000223	Apple iPhone 5 (A1429)
99000224	Apple iPhone 5 (A1429)
99000225	Apple iPhone 5 (A1429)
99000226	Apple iPhone 5 (A1429)
99000227	Apple iPhone 5 (A1429)
99000228	Apple iPhone 5 (A1429)
99000229	Apple iPhone 5 (A1429)
99000230	Apple iPhone 5 (A1429)
99000271	Apple iPhone 5 (A1429)
99000272	Apple iPhone 5 (A1429)
99000273	Apple iPhone 5 (A1429)
99000274	Apple iPhone 5 (A1429)
99000275	Apple iPhone 5 (A1429)
99000276	Apple iPhone 5 (A1429)
99000277	Apple iPhone 5 (A1429)
99000278	Apple iPhone 5 (A1429)
99000279	Apple iPhone 5 (A1429)
99000280	Apple iPhone 5 (A1429)
99000281	Apple iPhone 5 (A1429)
99000282	Apple iPhone 5 (A1429)
99000283	Apple iPhone 5 (A1429)
99000284	Apple iPhone 5 (A1429)
99000285	Apple iPhone 5 (A1429)
99000286	Apple iPhone 5 (A1429)
99000287	Apple iPhone 5 (A1429)
99000288	Apple iPhone 5 (A1429)
99000317	Apple iPhone 5 (A1429)
99000318	Apple iPhone 5 (A1429)
99000319	Apple iPhone 5 (A1429)
99000320	Apple iPhone 5 (A1429)
99000369	Apple iPhone 5 (A1429)
99000370	Apple iPhone 5 (A1429)
99000371	Apple iPhone 5 (A1429)
99000372	Apple iPhone 5 (A1429)
99000373	Apple iPhone 5 (A1429)
99000374	Apple iPhone 5 (A1429)
99000375	Apple iPhone 5 (A1429)
99000376	Apple iPhone 5 (A1429)
99000377	Apple iPhone 5 (A1429)
99000378	Apple iPhone 5 (A1429)
99000231	Apple iPhone 5 (A1442)
99000232	Apple iPhone 5 (A1442)
99000233	Apple iPhone 5 (A1442)
99000234	Apple iPhone 5 (A1442)
99000379	Apple iPhone 5 (A1442)
99000380	Apple iPhone 5 (A1442)
99000381	Apple iPhone 5 (A1442)
99000382	Apple iPhone 5 (A1442)
1355000	Apple iPhone 5 A1429
1355100	Apple iPhone 5 A1429
1355200	Apple iPhone 5 A1429
1355300	Apple iPhone 5 A1429
1355400	Apple iPhone 5 A1429
1355500	Apple iPhone 5 A1429
1355600	Apple iPhone 5 A1429
35799505	Apple iPhone 5C (A1456)
35799605	Apple iPhone 5C (A1456)
35853805	Apple iPhone 5C (A1456)
35853905	Apple iPhone 5C (A1456)
35854005	Apple iPhone 5C (A1456)
35854105	Apple iPhone 5C (A1456)
35854205	Apple iPhone 5C (A1456)
35879005	Apple iPhone 5C (A1456)
35879105	Apple iPhone 5C (A1456)
35879205	Apple iPhone 5C (A1456)
35879305	Apple iPhone 5C (A1456)
35879405	Apple iPhone 5C (A1456)
35881505	Apple iPhone 5C (A1456)
35881605	Apple iPhone 5C (A1456)
35881705	Apple iPhone 5C (A1456)
35881805	Apple iPhone 5C (A1456)
35881905	Apple iPhone 5C (A1456)
35799905	Apple iPhone 5C (A1507)
35800005	Apple iPhone 5C (A1507)
35854305	Apple iPhone 5C (A1507)
35854405	Apple iPhone 5C (A1507)
35854505	Apple iPhone 5C (A1507)
35854605	Apple iPhone 5C (A1507)
35854705	Apple iPhone 5C (A1507)
35880005	Apple iPhone 5C (A1507)
35880105	Apple iPhone 5C (A1507)
35880205	Apple iPhone 5C (A1507)
35880305	Apple iPhone 5C (A1507)
35880405	Apple iPhone 5C (A1507)
35883005	Apple iPhone 5C (A1507)
35883105	Apple iPhone 5C (A1507)
35883205	Apple iPhone 5C (A1507)
35883305	Apple iPhone 5C (A1507)
35883405	Apple iPhone 5C (A1507)
35802905	Apple iPhone 5C (A1516)
35855305	Apple iPhone 5C (A1516)
35855405	Apple iPhone 5C (A1516)
35855505	Apple iPhone 5C (A1516)
35855605	Apple iPhone 5C (A1516)
35855705	Apple iPhone 5C (A1516)
35802705	Apple iPhone 5C (A1526)
35855805	Apple iPhone 5C (A1526)
35855905	Apple iPhone 5C (A1526)
35856005	Apple iPhone 5C (A1526)
35856105	Apple iPhone 5C (A1526)
35856205	Apple iPhone 5C (A1526)
35878005	Apple iPhone 5C (A1526)
35878105	Apple iPhone 5C (A1526)
35878205	Apple iPhone 5C (A1526)
35878305	Apple iPhone 5C (A1526)
35878405	Apple iPhone 5C (A1526)
35803105	Apple iPhone 5C (A1529)
35854805	Apple iPhone 5C (A1529)
35854905	Apple iPhone 5C (A1529)
35855005	Apple iPhone 5C (A1529)
35855105	Apple iPhone 5C (A1529)
35855205	Apple iPhone 5C (A1529)
35879505	Apple iPhone 5C (A1529)
35879605	Apple iPhone 5C (A1529)
35879705	Apple iPhone 5C (A1529)
35879805	Apple iPhone 5C (A1529)
35879905	Apple iPhone 5C (A1529)
35883505	Apple iPhone 5C (A1529)
35883605	Apple iPhone 5C (A1529)
35883705	Apple iPhone 5C (A1529)
35883805	Apple iPhone 5C (A1529)
35883905	Apple iPhone 5C (A1529)
1378700	Apple iPhone 5C (A1532)
1378800	Apple iPhone 5C (A1532)
1383400	Apple iPhone 5C (A1532)
1383500	Apple iPhone 5C (A1532)
1383600	Apple iPhone 5C (A1532)
1383700	Apple iPhone 5C (A1532)
1383800	Apple iPhone 5C (A1532)
1388900	Apple iPhone 5C (A1532)
1389000	Apple iPhone 5C (A1532)
1389100	Apple iPhone 5C (A1532)
1389200	Apple iPhone 5C (A1532)
1389300	Apple iPhone 5C (A1532)
1389400	Apple iPhone 5C (A1532)
1389500	Apple iPhone 5C (A1532)
1389600	Apple iPhone 5C (A1532)
1389700	Apple iPhone 5C (A1532)
35799005	Apple iPhone 5C (A1532)
35799105	Apple iPhone 5C (A1532)
35853305	Apple iPhone 5C (A1532)
35853405	Apple iPhone 5C (A1532)
35853505	Apple iPhone 5C (A1532)
35853605	Apple iPhone 5C (A1532)
35853705	Apple iPhone 5C (A1532)
35882005	Apple iPhone 5C (A1532)
35882105	Apple iPhone 5C (A1532)
35882205	Apple iPhone 5C (A1532)
35882305	Apple iPhone 5C (A1532)
35882405	Apple iPhone 5C (A1532)
35876605	Apple iPhone 5S (A118)
35799305	Apple iPhone 5S (A1453)
35799405	Apple iPhone 5S (A1453)
35875605	Apple iPhone 5S (A1453)
35875705	Apple iPhone 5S (A1453)
35875805	Apple iPhone 5S (A1453)
35875905	Apple iPhone 5S (A1453)
35876005	Apple iPhone 5S (A1453)
35880505	Apple iPhone 5S (A1453)
35880605	Apple iPhone 5S (A1453)
35880705	Apple iPhone 5S (A1453)
35880805	Apple iPhone 5S (A1453)
35880905	Apple iPhone 5S (A1453)
35799705	Apple iPhone 5S (A1457)
35799805	Apple iPhone 5S (A1457)
35868405	Apple iPhone 5S (A1457)
35868505	Apple iPhone 5S (A1457)
35868605	Apple iPhone 5S (A1457)
35868705	Apple iPhone 5S (A1457)
35868805	Apple iPhone 5S (A1457)
35876105	Apple iPhone 5S (A1457)
35876205	Apple iPhone 5S (A1457)
35882505	Apple iPhone 5S (A1457)
35882605	Apple iPhone 5S (A1457)
35882705	Apple iPhone 5S (A1457)
35882805	Apple iPhone 5S (A1457)
35882905	Apple iPhone 5S (A1457)
35802805	Apple iPhone 5S (A1518)
35876505	Apple iPhone 5S (A1518)
35878505	Apple iPhone 5S (A1518)
35878605	Apple iPhone 5S (A1518)
35878705	Apple iPhone 5S (A1518)
35878805	Apple iPhone 5S (A1518)
35878905	Apple iPhone 5S (A1518)
35802605	Apple iPhone 5S (A1528)
35869905	Apple iPhone 5S (A1528)
35876705	Apple iPhone 5S (A1528)
35876805	Apple iPhone 5S (A1528)
35877605	Apple iPhone 5S (A1528)
35877705	Apple iPhone 5S (A1528)
35877805	Apple iPhone 5S (A1528)
35877905	Apple iPhone 5S (A1528)
35803005	Apple iPhone 5S (A1530)
35868905	Apple iPhone 5S (A1530)
35869005	Apple iPhone 5S (A1530)
35869105	Apple iPhone 5S (A1530)
35869205	Apple iPhone 5S (A1530)
35869305	Apple iPhone 5S (A1530)
35876305	Apple iPhone 5S (A1530)
35876405	Apple iPhone 5S (A1530)
35884005	Apple iPhone 5S (A1530)
35884105	Apple iPhone 5S (A1530)
35884205	Apple iPhone 5S (A1530)
35884305	Apple iPhone 5S (A1530)
35884405	Apple iPhone 5S (A1530)
1378900	Apple iPhone 5S (A1533)
1379000	Apple iPhone 5S (A1533)
1384500	Apple iPhone 5S (A1533)
1384600	Apple iPhone 5S (A1533)
1384700	Apple iPhone 5S (A1533)
1384800	Apple iPhone 5S (A1533)
1384900	Apple iPhone 5S (A1533)
1385000	Apple iPhone 5S (A1533)
1385100	Apple iPhone 5S (A1533)
1385200	Apple iPhone 5S (A1533)
1385300	Apple iPhone 5S (A1533)
1388000	Apple iPhone 5S (A1533)
1388100	Apple iPhone 5S (A1533)
1388200	Apple iPhone 5S (A1533)
1388300	Apple iPhone 5S (A1533)
1388400	Apple iPhone 5S (A1533)
1388500	Apple iPhone 5S (A1533)
1388600	Apple iPhone 5S (A1533)
1388700	Apple iPhone 5S (A1533)
1388800	Apple iPhone 5S (A1533)
35798805	Apple iPhone 5S (A1533)
35798905	Apple iPhone 5S (A1533)
35875105	Apple iPhone 5S (A1533)
35875205	Apple iPhone 5S (A1533)
35875305	Apple iPhone 5S (A1533)
35875405	Apple iPhone 5S (A1533)
35875505	Apple iPhone 5S (A1533)
35881005	Apple iPhone 5S (A1533)
35881105	Apple iPhone 5S (A1533)
35881205	Apple iPhone 5S (A1533)
35881305	Apple iPhone 5S (A1533)
35881405	Apple iPhone 5S (A1533)
1340300	Apple iPhone5(A1429)
1340400	Apple iPhone5(A1429)
1340500	Apple iPhone5(A1429)
1340600	Apple iPhone5(A1429)
1340700	Apple iPhone5(A1429)
1340800	Apple iPhone5(A1429)
1340900	Apple iPhone5(A1429)
1341000	Apple iPhone5(A1429)
1341100	Apple iPhone5(A1429)
1341200	Apple iPhone5(A1429)
1341300	Apple iPhone5(A1429)
1341400	Apple iPhone5(A1429)
1341500	Apple iPhone5(A1429)
1341600	Apple iPhone5(A1429)
1341700	Apple iPhone5(A1429)
1341800	Apple iPhone5(A1429)
1341900	Apple iPhone5(A1429)
1342000	Apple iPhone5(A1429)
1342100	Apple iPhone5(A1429)
1342200	Apple iPhone5(A1429)
35867905	C1992 (AC1992/12)
35868005	C1992 (AC1992/12)
35868105	C1992 (AC1992/12)
35868205	C1992 (AC1992/12)
35868305	C1992 (AC1992/12)
1266700	iPad 2 A1396
1266800	iPad 2 A1396
1266900	iPad 2 A1396
1267000	iPad 2 A1396
1267100	iPad 2 A1396
1279900	iPad 2 A1396
1280000	iPad 2 A1396
1280100	iPad 2 A1396
1280200	iPad 2 A1396
1280300	iPad 2 A1396
1280400	iPad 2 A1396
1280500	iPad 2 A1396
1280600	iPad 2 A1396
1292300	iPad 2 A1396
1292400	iPad 2 A1396
1292500	iPad 2 A1396
1292600	iPad 2 A1396
1292700	iPad 2 A1396
1292800	iPad 2 A1396
1292900	iPad 2 A1396
1293000	iPad 2 A1396
1293100	iPad 2 A1396
1293200	iPad 2 A1396
1309400	iPad 2 A1396
1309500	iPad 2 A1396
1309600	iPad 2 A1396
1309700	iPad 2 A1396
1309800	iPad 2 A1396
1309900	iPad 2 A1396
1310000	iPad 2 A1396
1310100	iPad 2 A1396
1310200	iPad 2 A1396
1310300	iPad 2 A1396
1222300	iPad 3G (A1337)
1222400	iPad 3G (A1337)
1232600	iPad 3G (A1337)
1232700	iPad 3G (A1337)
1232800	iPad 3G (A1337)
1232900	iPad 3G (A1337)
1233000	iPad 3G (A1337)
1243500	iPad 3G (A1337)
1243600	iPad 3G (A1337)
1243700	iPad 3G (A1337)
1243800	iPad 3G (A1337)
1243900	iPad 3G (A1337)
1244100	iPad 3G (A1337)
1244200	iPad 3G (A1337)
1244300	iPad 3G (A1337)
1244400	iPad 3G (A1337)
1244000	iPad 3G Model A1337
1202000	iPhone 3G (A1241)
1202100	iPhone 3G (A1241)
1202200	iPhone 3G (A1241)
1202300	iPhone 3G (A1241)
1202400	iPhone 3G (A1241)
1197600	iPhone 3G (A1324) 
1197700	iPhone 3G (A1324) 
1197800	iPhone 3G (A1324) 
1197900	iPhone 3G (A1324) 
1198000	iPhone 3G (A1324) 
1161200	iPhone 3G A1241
1161300	iPhone 3G A1241
1161400	iPhone 3G A1241
1171200	iPhone 3G A1241
1171300	iPhone 3G A1241
1171400	iPhone 3G A1241
1174200	iPhone 3G A1241
1174300	iPhone 3G A1241
1174400	iPhone 3G A1241
1174500	iPhone 3G A1241
1177100	iPhone 3G A1241
1177200	iPhone 3G A1241
1177300	iPhone 3G A1241
1177400	iPhone 3G A1241
1177500	iPhone 3G A1241
1177600	iPhone 3G A1241
1180800	iPhone 3G A1241
1180900	iPhone 3G A1241
1181000	iPhone 3G A1241
1181100	iPhone 3G A1241
1181200	iPhone 3G A1241
1181300	iPhone 3G A1241
1193200	iPhone 3G A1241
1193300	iPhone 3G A1241
1193400	iPhone 3G A1241
1193500	iPhone 3G A1241
1193600	iPhone 3G A1241
1193700	iPhone 3G A1241
1325400	iPhone 3G S (A1303)
1325500	iPhone 3G S (A1303)
1325600	iPhone 3G S (A1303)
1325700	iPhone 3G S (A1303)
1198100	iPhone 3GS - A1303 (AI0808)
1198200	iPhone 3GS - A1303 (AI0808)
1198300	iPhone 3GS - A1303 (AI0808)
1198400	iPhone 3GS - A1303 (AI0808)
1198500	iPhone 3GS - A1303 (AI0808)
1202500	iPhone 3GS - A1303 (AI0808)
1202600	iPhone 3GS - A1303 (AI0808)
1202700	iPhone 3GS - A1303 (AI0808)
1202800	iPhone 3GS - A1303 (AI0808)
1202900	iPhone 3GS - A1303 (AI0808)
1203000	iPhone 3GS - A1303 (AI0808)
1203100	iPhone 3GS - A1303 (AI0808)
1203200	iPhone 3GS - A1303 (AI0808)
1194800	iPhone 3GS (A1303)
1194900	iPhone 3GS (A1303)
1195000	iPhone 3GS (A1303)
1195100	iPhone 3GS (A1303)
1195200	iPhone 3GS (A1303)
1215300	iPhone 3GS (A1303)
1215400	iPhone 3GS (A1303)
1215500	iPhone 3GS (A1303)
1215600	iPhone 3GS (A1303)
1215700	iPhone 3GS (A1303)
1215800	iPhone 3GS (A1303)
1215900	iPhone 3GS (A1303)
1216000	iPhone 3GS (A1303)
1216100	iPhone 3GS (A1303)
1216200	iPhone 3GS (A1303)
1216300	iPhone 3GS (A1303)
1216400	iPhone 3GS (A1303)
1226100	iPhone 3GS (A1303)
1226200	iPhone 3GS (A1303)
1226300	iPhone 3GS (A1303)
1226400	iPhone 3GS (A1303)
1226500	iPhone 3GS (A1303)
1226600	iPhone 3GS (A1303)
1226700	iPhone 3GS (A1303)
1226800	iPhone 3GS (A1303)
1226900	iPhone 3GS (A1303)
1227000	iPhone 3GS (A1303)
1276100	iPhone 3GS (A1303)
1276200	iPhone 3GS (A1303)
1285400	iPhone 3GS (A1303)
1285500	iPhone 3GS (A1303)
1285600	iPhone 3GS (A1303)
1285700	iPhone 3GS (A1303)
1299100	iPhone 3GS (A1303)
1299200	iPhone 3GS (A1303)
1299300	iPhone 3GS (A1303)
1299400	iPhone 3GS (A1303)
1299500	iPhone 3GS (A1303)
1299600	iPhone 3GS (A1303)
1257200	iPhone 3GS Model A1303
1257300	iPhone 3GS Model A1303
1257400	iPhone 3GS Model A1303
1257500	iPhone 3GS Model A1303
1265900	iPhone 3GS(A1303)
1266000	iPhone 3GS(A1303)
1233600	iPhone 4 (A1332)
1233700	iPhone 4 (A1332)
1233800	iPhone 4 (A1332)
1233900	iPhone 4 (A1332)
1236800	iPhone 4 (A1332)
1241600	iPhone 4 (A1332)
1241700	iPhone 4 (A1332)
1241800	iPhone 4 (A1332)
1241900	iPhone 4 (A1332)
1242000	iPhone 4 (A1332)
1242100	iPhone 4 (A1332)
1242200	iPhone 4 (A1332)
1242300	iPhone 4 (A1332)
1242400	iPhone 4 (A1332)
1242500	iPhone 4 (A1332)
1242600	iPhone 4 (A1332)
1242700	iPhone 4 (A1332)
1242800	iPhone 4 (A1332)
1242900	iPhone 4 (A1332)
1243000	iPhone 4 (A1332)
1243100	iPhone 4 (A1332)
1253300	iPhone 4 (A1332)
1253400	iPhone 4 (A1332)
1253500	iPhone 4 (A1332)
1253600	iPhone 4 (A1332)
1253700	iPhone 4 (A1332)
1253800	iPhone 4 (A1332)
1253900	iPhone 4 (A1332)
1254000	iPhone 4 (A1332)
1254100	iPhone 4 (A1332)
1254200	iPhone 4 (A1332)
1254300	iPhone 4 (A1332)
1254400	iPhone 4 (A1332)
1254500	iPhone 4 (A1332)
1254600	iPhone 4 (A1332)
1254700	iPhone 4 (A1332)
1254800	iPhone 4 (A1332)
1254900	iPhone 4 (A1332)
1264400	iPhone 4 (A1332)
1264500	iPhone 4 (A1332)
1264600	iPhone 4 (A1332)
1264700	iPhone 4 (A1332)
1264800	iPhone 4 (A1332)
1264900	iPhone 4 (A1332)
1265000	iPhone 4 (A1332)
1265100	iPhone 4 (A1332)
1265200	iPhone 4 (A1332)
1265300	iPhone 4 (A1332)
1265400	iPhone 4 (A1332)
1265500	iPhone 4 (A1332)
1265600	iPhone 4 (A1332)
1265700	iPhone 4 (A1332)
1265800	iPhone 4 (A1332)
1274300	iPhone 4 (A1332)
1274400	iPhone 4 (A1332)
1274500	iPhone 4 (A1332)
1274600	iPhone 4 (A1332)
1274700	iPhone 4 (A1332)
1274800	iPhone 4 (A1332)
1274900	iPhone 4 (A1332)
1275000	iPhone 4 (A1332)
1275100	iPhone 4 (A1332)
1275200	iPhone 4 (A1332)
1275300	iPhone 4 (A1332)
1275400	iPhone 4 (A1332)
1275500	iPhone 4 (A1332)
1275600	iPhone 4 (A1332)
1275700	iPhone 4 (A1332)
1275800	iPhone 4 (A1332)
1275900	iPhone 4 (A1332)
1276000	iPhone 4 (A1332)
1283600	iPhone 4 (A1332)
1283700	iPhone 4 (A1332)
1283800	iPhone 4 (A1332)
1283900	iPhone 4 (A1332)
1284000	iPhone 4 (A1332)
1284100	iPhone 4 (A1332)
1284200	iPhone 4 (A1332)
1284300	iPhone 4 (A1332)
1284400	iPhone 4 (A1332)
1284500	iPhone 4 (A1332)
1284600	iPhone 4 (A1332)
1284700	iPhone 4 (A1332)
1284800	iPhone 4 (A1332)
1284900	iPhone 4 (A1332)
1285000	iPhone 4 (A1332)
1285100	iPhone 4 (A1332)
1285200	iPhone 4 (A1332)
1295700	iPhone 4 (A1332)
1295800	iPhone 4 (A1332)
1295900	iPhone 4 (A1332)
1296000	iPhone 4 (A1332)
1296100	iPhone 4 (A1332)
1296200	iPhone 4 (A1332)
1296300	iPhone 4 (A1332)
1296400	iPhone 4 (A1332)
1296500	iPhone 4 (A1332)
1296600	iPhone 4 (A1332)
1312400	iPhone 4 (A1332)
1312500	iPhone 4 (A1332)
1312600	iPhone 4 (A1332)
1312700	iPhone 4 (A1332)
1312800	iPhone 4 (A1332)
1312900	iPhone 4 (A1332)
1313100	iPhone 4 (A1332)
1313200	iPhone 4 (A1332)
1313300	iPhone 4 (A1332)
1300100	iPhone 4S (A1387)
1300200	iPhone 4S (A1387)
1300300	iPhone 4S (A1387)
1300400	iPhone 4S (A1387)
1300500	iPhone 4S (A1387)
1300600	iPhone 4S (A1387)
1300700	iPhone 4S (A1387)
1300800	iPhone 4S (A1387)
1302900	iPhone 4S (A1387)
1303000	iPhone 4S (A1387)
1303100	iPhone 4S (A1387)
1303200	iPhone 4S (A1387)
1303300	iPhone 4S (A1387)
1303400	iPhone 4S (A1387)
1303500	iPhone 4S (A1387)
1303600	iPhone 4S (A1387)
1303700	iPhone 4S (A1387)
1303800	iPhone 4S (A1387)
1303900	iPhone 4S (A1387)
1304000	iPhone 4S (A1387)
1304100	iPhone 4S (A1387)
1304200	iPhone 4S (A1387)
1304300	iPhone 4S (A1387)
1304400	iPhone 4S (A1387)
1304500	iPhone 4S (A1387)
1304600	iPhone 4S (A1387)
1304700	iPhone 4S (A1387)
1304800	iPhone 4S (A1387)
1304900	iPhone 4S (A1387)
1305000	iPhone 4S (A1387)
1305100	iPhone 4S (A1387)
1305200	iPhone 4S (A1387)
1305300	iPhone 4S (A1387)
1305400	iPhone 4S (A1387)
1305500	iPhone 4S (A1387)
1305600	iPhone 4S (A1387)
1305700	iPhone 4S (A1387)
1305800	iPhone 4S (A1387)
1305900	iPhone 4S (A1387)
1306000	iPhone 4S (A1387)
1306100	iPhone 4S (A1387)
1306200	iPhone 4S (A1387)
1306300	iPhone 4S (A1387)
1306400	iPhone 4S (A1387)
1306500	iPhone 4S (A1387)
1306600	iPhone 4S (A1387)
1306700	iPhone 4S (A1387)
1306800	iPhone 4S (A1387)
1306900	iPhone 4S (A1387)
1307000	iPhone 4S (A1387)
1307100	iPhone 4S (A1387)
1307200	iPhone 4S (A1387)
1307300	iPhone 4S (A1387)
1317000	iPhone 4S (A1387)
1317100	iPhone 4S (A1387)
1317200	iPhone 4S (A1387)
1317300	iPhone 4S (A1387)
1317400	iPhone 4S (A1387)
1317500	iPhone 4S (A1387)
1317600	iPhone 4S (A1387)
1317700	iPhone 4S (A1387)
1317800	iPhone 4S (A1387)
1317900	iPhone 4S (A1387)
1318000	iPhone 4S (A1387)
1318100	iPhone 4S (A1387)
1318200	iPhone 4S (A1387)
1318300	iPhone 4S (A1387)
1318400	iPhone 4S (A1387)
1318500	iPhone 4S (A1387)
1318600	iPhone 4S (A1387)
1318700	iPhone 4S (A1387)
1318800	iPhone 4S (A1387)
1318900	iPhone 4S (A1387)
1319000	iPhone 4S (A1387)
1319100	iPhone 4S (A1387)
1319200	iPhone 4S (A1387)
1319300	iPhone 4S (A1387)
1319400	iPhone 4S (A1387)
1319500	iPhone 4S (A1387)
1319600	iPhone 4S (A1387)
1319700	iPhone 4S (A1387)
1319800	iPhone 4S (A1387)
1319900	iPhone 4S (A1387)
1320000	iPhone 4S (A1387)
1320100	iPhone 4S (A1387)
1320200	iPhone 4S (A1387)
1320300	iPhone 4S (A1387)
1320400	iPhone 4S (A1387)
1320500	iPhone 4S (A1387)
1320600	iPhone 4S (A1387)
1320700	iPhone 4S (A1387)
1320800	iPhone 4S (A1387)
1320900	iPhone 4S (A1387)
1124500	iPhone A1203
1130000	iPhone A1203
1130100	iPhone A1203
1136400	iPhone A1203
1136500	iPhone A1203
1143400	iPhone A1203
1147200	iPhone A1203
1154600	iPhone-A1203
1165400	iPhone-A1203
107200	This is a Test IMEI to be used with multiple prototype models. The frequency bands for each model may not match what is listed in this record
